{
    "org.apache.cordova.device": {
        "source": {
            "type": "registry",
            "id": "org.apache.cordova.device"
        }
    },
    "com.ccsoft.plugin.CordovaFacebook": {
        "source": {
            "type": "git",
            "url": "https://github.com/ccsoft/cordova-facebook",
            "subdir": "."
        }
    },
    "org.apache.cordova.inappbrowser": {
        "source": {
            "type": "registry",
            "id": "org.apache.cordova.inappbrowser"
        }
    }
}